id;partner_token;partner_profile_id;first_name;middle_name;last_name;image_url;customer_id
1;twittertoken;@admin;admin;admin;Twitter Admin;https://placeholdit.co//i/555x150;3
2;facebooktoken;@zuckerberg;admin;admin;Facebook Admin;https://placeholdit.co//i/555x150;3
3;instagramtoken;@mark;admin;admin;Instagram Admin;https://placeholdit.co//i/555x150;3
4;twittertoken2;@user;user;user;Twitter user;https://placeholdit.co//i/555x150;5
5;facebooktoken2;@user;user;user;Facebook user;https://placeholdit.co//i/555x150;5
6;instagramtoken2;@user;user;user;Instagram user;https://placeholdit.co//i/555x150;5
